…
<br/>

For this example, I am interested in all observations of life expectancy
and GDP per capita for Canada, Hong Kong, and Kenya. The filtered
dataset will be sorted by country

    gapminder %>% 
        select(country, year, lifeExp, gdpPercap) %>%
        filter(country == "Canada" | country == "Hong Kong, China" | country == "Kenya") %>%
        arrange(country)

    ## Warning: package 'bindrcpp' was built under R version 3.3.3

    ## # A tibble: 36 x 4
    ##    country  year lifeExp gdpPercap
    ##    <fct>   <int>   <dbl>     <dbl>
    ##  1 Canada   1952    68.8    11367.
    ##  2 Canada   1957    70.0    12490.
    ##  3 Canada   1962    71.3    13462.
    ##  4 Canada   1967    72.1    16077.
    ##  5 Canada   1972    72.9    18971.
    ##  6 Canada   1977    74.2    22091.
    ##  7 Canada   1982    75.8    22899.
    ##  8 Canada   1987    76.9    26627.
    ##  9 Canada   1992    78.0    26343.
    ## 10 Canada   1997    78.6    28955.
    ## # ... with 26 more rows
…
